Bowen Qin - 构造感知机模型
…
set.seed(123)
n = 2000
df <- tibble(
  id = 1:n,
  x1 = rnorm(n),
  x2 = rnorm(n),
  y = if_else(2*x1 + 3*x2 >= 0, 1, -1)
) %>% 
  arrange(id)
df

# A tibble: 2,000 × 4
      id      x1     x2     y
   <int>   <dbl>  <dbl> <dbl>
 1     1 -0.560  -0.512    -1
 2     2 -0.230   0.237     1
 3     3  1.56   -0.542     1
 4     4  0.0705  1.22      1
 5     5  0.129   0.174     1
 6     6  1.72   -0.615     1
 7     7  0.461  -1.81     -1
 8     8 -1.27   -0.644    -1
 9     9 -0.687   2.05      1
10    10 -0.446  -0.561    -1
# ℹ 1,990 more rows
…
2 modify PLA

set.seed(111)
n = 2000
df <- tibble(
  id = 1:n,
  x1 = rnorm(n),
  x2 = rnorm(n),
  e = rnorm(n),
  y = if_else(2*x1 + 3*x2 + e >= 0, 1, -1)
) %>% 
  arrange(id)
df

# A tibble: 2,000 × 5
      id     x1      x2      e     y
   <int>  <dbl>   <dbl>  <dbl> <dbl>
 1     1  0.235  1.13    0.141     1
 2     2 -0.331  0.858  -0.600     1
 3     3 -0.312 -0.574  -1.06     -1
 4     4 -2.30   1.38    1.89      1
 5     5 -0.171 -0.575  -0.657    -1
 6     6  0.140 -0.593  -1.15     -1
 7     7 -1.50  -1.42   -1.10     -1
 8     8 -1.01   0.0288 -1.44     -1
 9     9 -0.948 -0.361   0.823    -1
10    10 -0.494  0.508   0.147     1
# ℹ 1,990 more rows
…
