Bowen Qin - 人口数据
…
dt_list$dt_age_dist <- dt_list$dt_age_dist %>% 
  pivot_longer(
    cols = - c(year, `人口数(人口抽样调查)(人)`),
    names_to = "年龄段",
    values_to = "人口数"
  ) %>% 
  mutate(`年龄段` = str_remove(`年龄段`, "人口数.+")) %>% 
  rename(`总人口数` = `人口数(人口抽样调查)(人)`)

dt_list$dt_age_dist

# A tibble: 200 × 4
    year 总人口数 年龄段  人口数
   <dbl>    <dbl> <chr>    <dbl>
 1  2023       NA 0-4岁       NA
 2  2023       NA 5-9岁       NA
 3  2023       NA 10-14岁     NA
 4  2023       NA 15-19岁     NA
 5  2023       NA 20-24岁     NA
 6  2023       NA 25-29岁     NA
 7  2023       NA 30-34岁     NA
 8  2023       NA 35-39岁     NA
 9  2023       NA 40-44岁     NA
10  2023       NA 45-49岁     NA
# ℹ 190 more rows

dt_list$dt_rate <- dt_list$dt_rate %>% 
  pivot_longer(
    cols = -year,
    names_to = "比率名称",
    names_pattern = "人口([^\\(]+)",
    values_to = "比值"
  )
dt_list$dt_rate

# A tibble: 27 × 3
    year 比率名称    比值
   <dbl> <chr>      <dbl>
 1  2022 出生率      6.77
 2  2022 死亡率      7.37
 3  2022 自然增长率 -0.6 
 4  2021 出生率      7.52
 5  2021 死亡率      7.18
 6  2021 自然增长率  0.34
 7  2020 出生率      8.52
 8  2020 死亡率      7.07
 9  2020 自然增长率  1.45
10  2019 出生率     10.4 
# ℹ 17 more rows

dt_list$dt_education <- dt_list$dt_education %>% 
  select(-matches("[^性]人口数|6岁及6岁以上.性")) %>% 
  pivot_longer(
    cols = -year,
    values_to = "人口数",
    names_to = c("教育程度", "性别"),
    names_pattern = "6岁及6岁以上([^男|女]+)(男性|女性)人口数\\(人口抽样调查\\)\\(人\\)"
  )

dt_list$dt_education

# A tibble: 170 × 4
    year 教育程度   性别  人口数
   <dbl> <chr>      <chr>  <dbl>
 1  2022 未上过学   男性   14948
 2  2022 未上过学   女性   36444
 3  2022 小学       男性  167013
 4  2022 小学       女性  188341
 5  2022 初中       男性  252064
 6  2022 初中       女性  215929
 7  2022 高中       男性  123426
 8  2022 高中       女性   99455
 9  2022 大专及以上 男性  137692
10  2022 大专及以上 女性  127723
# ℹ 160 more rows

dt_list$dt_female <- dt_list$dt_female %>% 
  select(-`女性人口数(人口抽样调查)(人)`) %>% 
  pivot_longer(
    cols = -year,
    names_to = c("年龄段", "性别"),
    names_pattern = "([^女]+)(女性)",
    values_to = "人口数"
  )
  
dt_list$dt_female

# A tibble: 160 × 4
    year 年龄段  性别  人口数
   <dbl> <chr>   <chr>  <dbl>
 1  2022 0-4岁   女性   29658
 2  2022 5-9岁   女性   42783
 3  2022 10-14岁 女性   42781
 4  2022 15-19岁 女性   36873
 5  2022 20-24岁 女性   34483
 6  2022 25-29岁 女性   40234
 7  2022 30-34岁 女性   56267
 8  2022 35-39岁 女性   53435
 9  2022 40-44岁 女性   47957
10  2022 45-49岁 女性   51025
# ℹ 150 more rows

dt_list$dt_male <- dt_list$dt_male %>% 
  select(-`男性人口数(人口抽样调查)(人)`) %>% 
  pivot_longer(
    cols = -year,
    names_to = c("年龄段", "性别"),
    names_pattern = "([^男]+)(男性)",
    values_to = "人口数"
  )
dt_list$dt_male

# A tibble: 160 × 4
    year 年龄段  性别  人口数
   <dbl> <chr>   <chr>  <dbl>
 1  2022 0-4岁   男性   32589
 2  2022 5-9岁   男性   48010
 3  2022 10-14岁 男性   49065
 4  2022 15-19岁 男性   42687
 5  2022 20-24岁 男性   39146
 6  2022 25-29岁 男性   44806
 7  2022 30-34岁 男性   60488
 8  2022 35-39岁 男性   56397
 9  2022 40-44岁 男性   50422
10  2022 45-49岁 男性   52930
# ℹ 150 more rows

dt_list$dt_gender <- dt_list$dt_gender %>% 
  pivot_longer(
    cols = -c(year, `性别比(女=100)(人口抽样调查)`),
    names_to = "年龄段",
    names_pattern = "([^性]+)",
    values_to = "性别比"
  ) %>% 
  rename(总体性别比 = `性别比(女=100)(人口抽样调查)`)
dt_list$dt_gender

# A tibble: 160 × 4
    year 总体性别比 年龄段  性别比
   <dbl>      <dbl> <chr>    <dbl>
 1  2022       104. 0-4岁     110.
 2  2022       104. 5-9岁     112.
 3  2022       104. 10-14岁   115.
 4  2022       104. 15-19岁   116.
 5  2022       104. 20-24岁   114.
 6  2022       104. 25-29岁   111.
 7  2022       104. 30-34岁   108.
 8  2022       104. 35-39岁   106.
 9  2022       104. 40-44岁   105.
10  2022       104. 45-49岁   104.
# ℹ 150 more rows

dt_list$dt_population <- dt_list$dt_population %>% 
  pivot_longer(
    cols = - c(year, `年末总人口(万人)`),
    names_to = "类别",
    names_pattern = "([^人]+)",
    values_to = "人口数_万人"
  ) %>% 
  rename(总人口_万人 = `年末总人口(万人)`)
dt_list$dt_population

# A tibble: 36 × 4
    year 总人口_万人 类别  人口数_万人
   <dbl>       <dbl> <chr>       <dbl>
 1  2022      141175 男性        72206
 2  2022      141175 女性        68969
 3  2022      141175 城镇        92071
 4  2022      141175 乡村        49104
 5  2021      141260 男性        72311
 6  2021      141260 女性        68949
 7  2021      141260 城镇        91425
 8  2021      141260 乡村        49835
 9  2020      141212 男性        72357
10  2020      141212 女性        68855
# ℹ 26 more rows
…
dt_list$dt_age

# A tibble: 27 × 6
    year `年末总人口(万人)` `总抚养比(%)` 年龄段     人口_万人 抚养比
   <dbl>              <dbl>         <dbl> <chr>          <dbl>  <dbl>
 1  2022             141175          46.6 0-14岁         23908   24.8
 2  2022             141175          46.6 15-64岁        96289   NA  
 3  2022             141175          46.6 65岁及以上     20978   21.8
 4  2021             141260          46.3 0-14岁         24678   25.6
 5  2021             141260          46.3 15-64岁        96526   NA  
 6  2021             141260          46.3 65岁及以上     20056   20.8
 7  2020             141212          45.9 0-14岁         25277   26.2
 8  2020             141212          45.9 15-64岁        96871   NA  
 9  2020             141212          45.9 65岁及以上     19064   19.7
10  2019             141008          41.5 0-14岁         23689   23.8
# ℹ 17 more rows
…
男性年龄分布与女性年龄分布

dt_gender <- dt_list$dt_male %>% 
  bind_rows(dt_list$dt_female) 

dt_gender <- dt_list$dt_age_dist %>% 
  rename(该年龄段总人数 = 人口数) %>%
  left_join(dt_gender, join_by(year, 年龄段)) %>% 
  mutate(该性别总人数 = sum(人口数), .by = c(year, 性别)) %>% 
  relocate(year, 年龄段, 性别, 人口数, 该性别总人数, 该年龄段总人数)

dt_gender

# A tibble: 360 × 7
    year 年龄段  性别  人口数 该性别总人数 该年龄段总人数 总人口数
   <dbl> <chr>   <chr>  <dbl>        <dbl>          <dbl>    <dbl>
 1  2023 0-4岁   <NA>      NA           NA             NA       NA
 2  2023 5-9岁   <NA>      NA           NA             NA       NA
 3  2023 10-14岁 <NA>      NA           NA             NA       NA
 4  2023 15-19岁 <NA>      NA           NA             NA       NA
 5  2023 20-24岁 <NA>      NA           NA             NA       NA
 6  2023 25-29岁 <NA>      NA           NA             NA       NA
 7  2023 30-34岁 <NA>      NA           NA             NA       NA
 8  2023 35-39岁 <NA>      NA           NA             NA       NA
 9  2023 40-44岁 <NA>      NA           NA             NA       NA
10  2023 45-49岁 <NA>      NA           NA             NA       NA
# ℹ 350 more rows
…
性别比

dt_list$dt_gender

# A tibble: 160 × 4
    year 总体性别比 年龄段  性别比
   <dbl>      <dbl> <chr>    <dbl>
 1  2022       104. 0-4岁     110.
 2  2022       104. 5-9岁     112.
 3  2022       104. 10-14岁   115.
 4  2022       104. 15-19岁   116.
 5  2022       104. 20-24岁   114.
 6  2022       104. 25-29岁   111.
 7  2022       104. 30-34岁   108.
 8  2022       104. 35-39岁   106.
 9  2022       104. 40-44岁   105.
10  2022       104. 45-49岁   104.
# ℹ 150 more rows
…
