Bowen Qin - 四人追逐游戏
…
整理一下结果

dt <- do.call(bind_rows, dt_list)
dt

# A tibble: 7,572 × 7
   name       x      y direction     n     x_d     y_d
   <chr>  <dbl>  <dbl>     <dbl> <dbl>   <dbl>   <dbl>
 1 A      1      1             2     0 NA      NA     
 2 B      1     -1             3     0 NA      NA     
 3 C     -1     -1             4     0 NA      NA     
 4 D     -1      1             1     0 NA      NA     
 5 A      1      0.98          2     1  0      -2     
 6 B      0.98  -1             3     1 -2       0     
 7 C     -1     -0.98          4     1  0       2     
 8 D     -0.98   1             1     1  2       0     
 9 A      1.00   0.960         2     2 -0.0200 -1.98  
10 B      0.960 -1.00          3     2 -1.98    0.0200
# ℹ 7,562 more rows
…
