Bowen Qin - 实现简单线性回归
…
生成模拟数据

x <- 1:4
names(x) <- LETTERS[1:4]
df <- tibble(
  x1 = runif(1000, -10, 10),
  x2 = sample(1:20, 1000, replace = TRUE),
  x3 = sample(LETTERS[1:4], 1000, replace = TRUE),
  error = rnorm(1000, sd = 1000),
  y = 1 + 2 * x1 + 3 * x2 + x[x3]
)
df

# A tibble: 1,000 × 5
       x1    x2 x3     error     y
    <dbl> <int> <chr>  <dbl> <dbl>
 1 -7.41      8 A      -619. 11.2 
 2  0.525    12 C     -2573. 41.1 
 3  9.44      5 C      -587. 37.9 
 4  7.74      1 D      -789. 23.5 
 5 -8.20      2 C     -1028. -6.40
 6  0.358    13 C       224. 43.7 
 7  3.76      3 A      -958. 18.5 
 8 -3.35     13 B      -877. 35.3 
 9 -9.83     13 A      -276. 21.3 
10  3.04     15 C     -1007. 55.1 
# ℹ 990 more rows
…
