Bowen Qin - 从pdf读取表格
…
这里我们的pdf有27页，每页的表格都是固定的表头，可以用docx_extract_all_tbls()提取全部表格再按行合并。

tbls <- docx_extract_all_tbls(docs)
recruitment <- bind_rows(tbls)
recruitment

# A tibble: 164 × 11
   用人单位          具体单位 岗位名称  岗位简介.主要职责描述. 岗位代码 招聘人数
   <chr>             <chr>    <chr>     <chr>                  <chr>    <chr>   
 1 河南省烟草专卖局… 内设机构 经济运行… 负责经济运行管理等工…  10101    1       
 2 河南省烟草专卖局… 内设机构 科技项目… 负责科技项目管理等工…  10102    1       
 3 河南省烟草专卖局… 内设机构 企业法律… 负责法治建设等工作。   10103    1       
 4 河南省烟草专卖局… 内设机构 资金管理… 负责会计核算工作；负…  10104    1       
 5 河南省烟草专卖局… 内设机构 营销管理… 负责卷烟营销数据采集…  10105    1       
 6 河南省烟草专卖局… 内设机构 营销管理… 负责卷烟营销数据采集…  10106    1       
 7 河南省烟草专卖局… 内设机构 综合管理… 负责行政后勤管理等工…  10107    1       
 8 河南省烟草专卖局… 内设机构 网络安全… 负责网络和信息安全等…  10108    1       
 9 河南省烟草专卖局… 内设机构 质量监督… 负责烟草制品质量监督…  10109    1       
10 中国烟草河南进出… 内设机构 会计（审… 负责会计核算工作；负…  10110    1       
# ℹ 154 more rows
# ℹ 5 more variables: 所需专业名称 <chr>, 学历学位 <chr>, 政治面貌 <chr>,
#   毕业年限 <chr>, 备注 <chr>
…
